<?xml version="1.0" encoding="UTF-8" standalone="no"?>
<!DOCTYPE svg PUBLIC "-//W3C//DTD SVG 1.1//EN"
"http://www.w3.org/Graphics/SVG/1.1/DTD/svg11.dtd">
<!-- Creator: dpic version 2014.Jan.01 option -v for SVG 1.1 -->
<!-- width="544" height="206" -->
<svg
 xmlns="http://www.w3.org/2000/svg" xmlns:xlink="http://www.w3.org/1999/xlink"
 xml:space="preserve"
 style="shape-rendering:geometricPrecision; text-rendering:geometricPrecision;
 image-rendering:optimizeQuality; fill-rule:evenodd; clip-rule:evenodd"
 width="543px" height="205.5px"
 viewBox="0 0 543 205.5"
 font-size="11pt" text-anchor="middle"
 stroke="black" stroke-miterlimit="10" stroke-width="1" fill="none">
<g>
<rect fill="gray"
 x="0.5" y="90.5" width="540" height="22.5" />
<text stroke-width="0.2pt" fill="black" x="268.535714" y="106.5625">
Bus
</text>
<polygon fill="black"
 points="108.5,121.5 110.109612,121.5
108.5,115.061553 106.890388,121.5" />
<polygon fill="black"
 points="108.5,149.5 106.890388,149.5
108.5,155.938447 110.109612,149.5" />
<line x1="108.5" y1="115.061553" x2="108.5" y2="155.938447" />
<rect x="74.75" y="158" width="67.5" height="45" />
<text stroke-width="0.2pt" fill="black" x="106.535714" y="185.3125">
Midbrain
</text>
<polygon fill="black"
 points="216.5,121.5 218.109612,121.5
216.5,115.061553 214.890388,121.5" />
<polygon fill="black"
 points="216.5,149.5 214.890388,149.5
216.5,155.938447 218.109612,149.5" />
<line x1="216.5" y1="115.061553" x2="216.5" y2="155.938447" />
<rect x="182.75" y="158" width="67.5" height="45" />
<text stroke-width="0.2pt" fill="black" x="214.535714" y="178.4375">
Hindbrain
</text>
<text stroke-width="0.2pt" fill="black" x="214.535714" y="192.1875">
(BMS)
</text>
<polygon fill="black"
 points="324.5,149.5 322.890388,149.5
324.5,155.938447 326.109612,149.5" />
<line x1="324.5" y1="113" x2="324.5" y2="155.938447" />
<ellipse cx="324.5" cy="180.5" rx="33.75" ry="22.5" />
<text stroke-width="0.2pt" fill="black" x="322.535714" y="185.3125">
Display
</text>
<polygon fill="black"
 points="432.5,149.5 430.890388,149.5
432.5,155.938447 434.109612,149.5" />
<line x1="432.5" y1="113" x2="432.5" y2="155.938447" />
<ellipse cx="432.5" cy="180.5" rx="33.75" ry="22.5" />
<text stroke-width="0.2pt" fill="black" x="430.535714" y="185.3125">
Buzzer
</text>
<polygon fill="black"
 points="270.5,82 268.890388,82
270.5,88.438447 272.109612,82" />
<polygon fill="black"
 points="270.5,54 272.109612,54
270.5,47.561553 268.890388,54" />
<line x1="270.5" y1="88.438447" x2="270.5" y2="47.561553" />
<rect x="236.75" y="0.5" width="67.5" height="45" />
<text stroke-width="0.2pt" fill="black" x="268.535714" y="27.8125">
Forebrain
</text>
</g></svg>
